255838
250960
253312
253528
255616
251692
255064
257002
256966
253300
257074
255334
251854
253750
253486
250228
251032
256144
250480
255076
257050
256642
251224
250162
256402
242628
252244
255964
257605
251218
251806
256666
256516
251740
256828
255844
254548